n = 10
s1, inputorder:
	visited: 	41847
	failed:		20923

s2, inputorder:
	visited:	701141
	failed:		350570

firstfail:
	visited: 	503769
	failed:  	251884
	
smallestoption: (same as s1)
	visited:	41847
	failed:		20923

largestoption:
	visited:	56837
	failed:		28418
	
simpleDFS:
	visited: 	32059
	failed:		16029